\relax 
\catcode `"\active 
\catcode `<\active 
\catcode `>\active 
\@nameuse{es@quoting}
\AC@reset@newl@bel
\select@language{spanish}
\@writefile{toc}{\select@language{spanish}}
\@writefile{lof}{\select@language{spanish}}
\@writefile{lot}{\select@language{spanish}}
\newacro{COCOMO}[COCOMO]{Constructive Cost Model}
\newacro{CRUD}[CRUD]{Create,Read,Update and Delete}
\newacro{EAF}[EAF]{Effort Adjustment Factor}
\newacro{ESI}[ESI]{Escuela Superior de Ingenier\IeC {\'\i }a}
\newacro{UML}[UML]{United Modeling Language}
\newacro{FPS}[FPS]{First Person Shooter}
\newacro{PHP}[PHP]{PHP Hypertext Pre-processor}
\newacro{W3C}[W3C]{World Wide Web Consortium}
\newacro{HTTP}[HTTP]{Hypertext Transfer Protocol}
\@writefile{toc}{\contentsline {chapter}{\'{I}ndice general}{\es@scroman  {ii}}}
\@writefile{toc}{\contentsline {chapter}{\IeC {\'I}ndice de Figuras}{\es@scroman  {iv}}}
\AC@undonewlabel{acro:CRUD}
\newlabel{acro:CRUD}{{}{\es@scroman  {v}}}
\acronymused{CRUD}
\@writefile{toc}{\contentsline {chapter}{\IeC {\'I}ndice de Tablas}{\es@scroman  {viii}}}
\@writefile{toc}{\contentsline {chapter}{\numberline {1}Introducci\IeC {\'o}n}{1}}
\@writefile{lof}{\addvspace {10\p@ }}
\@writefile{lot}{\addvspace {10\p@ }}
\@writefile{toc}{\contentsline {section}{\numberline {1.1}Descripci\IeC {\'o}n general}{1}}
\AC@undonewlabel{acro:ESI}
\newlabel{acro:ESI}{{1.1}{1}}
\acronymused{ESI}
\acronymused{ESI}
\@writefile{toc}{\contentsline {section}{\numberline {1.2}Motivaci\IeC {\'o}n}{2}}
\acronymused{ESI}
\@writefile{toc}{\contentsline {section}{\numberline {1.3}Otras gu\IeC {\'\i }as virtuales}{2}}
\@writefile{toc}{\contentsline {section}{\numberline {1.4}Glosario}{3}}
\@writefile{toc}{\contentsline {subsection}{\numberline {1.4.1}T\IeC {\'e}rminos}{3}}
\AC@undonewlabel{acro:PHP}
\newlabel{acro:PHP}{{1.4.1}{3}}
\acronymused{PHP}
\AC@undonewlabel{acro:W3C}
\newlabel{acro:W3C}{{1.4.1}{3}}
\acronymused{W3C}
\@writefile{toc}{\contentsline {section}{\numberline {1.5}Herramientas utilizadas}{3}}
\acronymused{PHP}
\acronymused{PHP}
\acronymused{PHP}
\@writefile{lot}{\contentsline {table}{\numberline {1.1}{\ignorespaces Herramientas utilizadas}}{4}}
\newlabel{tabla:autores}{{1.1}{4}}
\@writefile{toc}{\contentsline {section}{\numberline {1.6}Organizaci\IeC {\'o}n de la documentaci\IeC {\'o}n }{5}}
\AC@undonewlabel{acro:COCOMO}
\newlabel{acro:COCOMO}{{1.6}{5}}
\acronymused{COCOMO}
\AC@undonewlabel{acro:UML}
\newlabel{acro:UML}{{1.6}{5}}
\acronymused{UML}
\@writefile{toc}{\contentsline {chapter}{\numberline {2}Planificaci\IeC {\'o}n }{7}}
\@writefile{lof}{\addvspace {10\p@ }}
\@writefile{lot}{\addvspace {10\p@ }}
\@writefile{toc}{\contentsline {section}{\numberline {2.1}Metodolog\IeC {\'\i }a de desarrollo}{7}}
\@writefile{toc}{\contentsline {subsection}{\numberline {2.1.1}Iteraci\IeC {\'o}n 1:}{7}}
\@writefile{toc}{\contentsline {subsubsection}{\numberline {2.1.1.1}Iteraci\IeC {\'o}n 2:}{7}}
\@writefile{toc}{\contentsline {subsubsection}{\numberline {2.1.1.2}Iteraci\IeC {\'o}n 3:}{8}}
\acronymused{CRUD}
\@writefile{toc}{\contentsline {subsubsection}{\numberline {2.1.1.3}Iteraci\IeC {\'o}n 4:}{8}}
\@writefile{toc}{\contentsline {subsubsection}{\numberline {2.1.1.4}Iteraci\IeC {\'o}n 5:}{8}}
\acronymused{CRUD}
\acronymused{CRUD}
\@writefile{toc}{\contentsline {subsubsection}{\numberline {2.1.1.5}Iteraci\IeC {\'o}n 6}{8}}
\acronymused{ESI}
\@writefile{toc}{\contentsline {subsubsection}{\numberline {2.1.1.6}Iteraci\IeC {\'o}n 7}{9}}
\@writefile{toc}{\contentsline {subsection}{\numberline {2.1.2}Diagrama de Gantt}{9}}
\@writefile{lof}{\contentsline {figure}{\numberline {2.1}{\ignorespaces Diagrama de Gant-Parte I}}{9}}
\@writefile{lof}{\contentsline {figure}{\numberline {2.2}{\ignorespaces Diagrama de Gantt-Parte II}}{9}}
\@writefile{lof}{\contentsline {figure}{\numberline {2.3}{\ignorespaces Diagrama de Gantt-Parte III}}{10}}
\@writefile{lof}{\contentsline {figure}{\numberline {2.4}{\ignorespaces Diagrama de Gantt-Parte IV}}{10}}
\@writefile{lof}{\contentsline {figure}{\numberline {2.5}{\ignorespaces Diagrama de Gantt-Parte V}}{11}}
\@writefile{lof}{\contentsline {figure}{\numberline {2.6}{\ignorespaces Diagrama de Gantt-Parte VI}}{11}}
\@writefile{toc}{\contentsline {subsection}{\numberline {2.1.3}Estimaci\IeC {\'o}n de costes}{11}}
\acronymused{COCOMO}
\newlabel{Cuadro 1}{{2.1.3}{12}}
\@writefile{lot}{\contentsline {table}{\numberline {2.1}{\ignorespaces Modos COCOMO}}{12}}
\@writefile{lot}{\contentsline {table}{\numberline {2.2}{\ignorespaces Tabla atributos FAE}}{12}}
\@writefile{toc}{\contentsline {subsection}{\numberline {2.1.4}Evaluaci\IeC {\'o}n de riesgos}{13}}
\@writefile{toc}{\contentsline {subsubsection}{\numberline {2.1.4.1}Riegos durante el desarrollo}{13}}
\@writefile{lot}{\contentsline {table}{\numberline {2.3}{\ignorespaces Riesgo I}}{13}}
\@writefile{lot}{\contentsline {table}{\numberline {2.4}{\ignorespaces Riesgo II}}{13}}
\@writefile{toc}{\contentsline {subsubsection}{\numberline {2.1.4.2}Riesgos durante el uso de la aplicaci\IeC {\'o}n}{13}}
\@writefile{lot}{\contentsline {table}{\numberline {2.5}{\ignorespaces Riesgo III}}{13}}
\@writefile{lot}{\contentsline {table}{\numberline {2.6}{\ignorespaces Riesgo IV}}{13}}
\@writefile{lot}{\contentsline {table}{\numberline {2.7}{\ignorespaces Riesgo V}}{14}}
\@writefile{toc}{\contentsline {chapter}{\numberline {3}An\IeC {\'a}lisis de Requisitos}{15}}
\@writefile{lof}{\addvspace {10\p@ }}
\@writefile{lot}{\addvspace {10\p@ }}
\@writefile{toc}{\contentsline {section}{\numberline {3.1}Cat\IeC {\'a}logo de actores}{15}}
\@writefile{toc}{\contentsline {subsection}{\numberline {3.1.1}Actores en la gu\IeC {\'\i }a virtual}{15}}
\@writefile{toc}{\contentsline {subsection}{\numberline {3.1.2}Actores en panel de control}{15}}
\@writefile{toc}{\contentsline {section}{\numberline {3.2}Requisitos funcionales}{16}}
\@writefile{toc}{\contentsline {subsection}{\numberline {3.2.1}Gu\IeC {\'\i }a virtual}{16}}
\@writefile{toc}{\contentsline {subsection}{\numberline {3.2.2}Panel de control}{16}}
\@writefile{toc}{\contentsline {subsection}{\numberline {3.2.3}Servicio Web}{17}}
\@writefile{toc}{\contentsline {section}{\numberline {3.3}Requisitos no funcionales}{17}}
\@writefile{toc}{\contentsline {subsection}{\numberline {3.3.1}Gu\IeC {\'\i }a Virtual}{18}}
\@writefile{toc}{\contentsline {subsection}{\numberline {3.3.2}Panel de control}{18}}
\@writefile{toc}{\contentsline {subsection}{\numberline {3.3.3}Servicio web}{18}}
\@writefile{toc}{\contentsline {section}{\numberline {3.4}Requisitos de informaci\IeC {\'o}n}{18}}
\@writefile{toc}{\contentsline {section}{\numberline {3.5}Estudio de alternativas tecnol\IeC {\'o}gicas}{19}}
\@writefile{toc}{\contentsline {subsection}{\numberline {3.5.1}Alternativas a Unity}{19}}
\@writefile{toc}{\contentsline {subsubsection}{\numberline {3.5.1.1}CryENGINE}{19}}
\@writefile{toc}{\contentsline {subsubsection}{\numberline {3.5.1.2}Unreal Engine}{19}}
\@writefile{toc}{\contentsline {subsubsection}{\numberline {3.5.1.3}Shiva 3D}{20}}
\@writefile{toc}{\contentsline {subsubsection}{\numberline {3.5.1.4}Torque 3D}{20}}
\@writefile{toc}{\contentsline {chapter}{\numberline {4}An\IeC {\'a}lisis del Sistema}{21}}
\@writefile{lof}{\addvspace {10\p@ }}
\@writefile{lot}{\addvspace {10\p@ }}
\acronymused{UML}
\acronymused{UML}
\acronymused{UML}
\@writefile{toc}{\contentsline {section}{\numberline {4.1}Diagrama de clases}{21}}
\@writefile{toc}{\contentsline {subsection}{\numberline {4.1.1}Gu\IeC {\'\i }a virtual}{22}}
\@writefile{lof}{\contentsline {figure}{\numberline {4.1}{\ignorespaces Diagrama de clases de la gu\IeC {\'\i }a virtual}}{22}}
\@writefile{lof}{\contentsline {figure}{\numberline {4.2}{\ignorespaces Clase ClassInfoScript}}{23}}
\@writefile{lof}{\contentsline {figure}{\numberline {4.3}{\ignorespaces Clase ButtonScript}}{24}}
\@writefile{lof}{\contentsline {figure}{\numberline {4.4}{\ignorespaces Clase Room}}{25}}
\@writefile{lof}{\contentsline {figure}{\numberline {4.5}{\ignorespaces Clase Dependency}}{25}}
\@writefile{lof}{\contentsline {figure}{\numberline {4.6}{\ignorespaces Clase Office}}{26}}
\@writefile{lof}{\contentsline {figure}{\numberline {4.7}{\ignorespaces Clase ExtraCollider}}{26}}
\@writefile{lof}{\contentsline {figure}{\numberline {4.8}{\ignorespaces Clase InitializerScript}}{26}}
\@writefile{lof}{\contentsline {figure}{\numberline {4.9}{\ignorespaces Clase ColliderPlacer}}{26}}
\@writefile{lof}{\contentsline {figure}{\numberline {4.10}{\ignorespaces Clase CollisionScript}}{27}}
\@writefile{lof}{\contentsline {figure}{\numberline {4.11}{\ignorespaces Clase MovementScript}}{27}}
\@writefile{lof}{\contentsline {figure}{\numberline {4.12}{\ignorespaces Clase DoorScript}}{27}}
\@writefile{lof}{\contentsline {figure}{\numberline {4.13}{\ignorespaces Clase SecurityDoorScript}}{27}}
\@writefile{lof}{\contentsline {figure}{\numberline {4.14}{\ignorespaces Clase UIManagerScript}}{28}}
\@writefile{lof}{\contentsline {figure}{\numberline {4.15}{\ignorespaces Clase SizeScript}}{28}}
\@writefile{toc}{\contentsline {subsection}{\numberline {4.1.2}Panel de control}{29}}
\@writefile{lof}{\contentsline {figure}{\numberline {4.16}{\ignorespaces Diagrama de clases del panel de control}}{29}}
\@writefile{lof}{\contentsline {figure}{\numberline {4.17}{\ignorespaces Clase MyController}}{30}}
\@writefile{lof}{\contentsline {figure}{\numberline {4.18}{\ignorespaces Clase Clase}}{30}}
\@writefile{lof}{\contentsline {figure}{\numberline {4.19}{\ignorespaces Clase Office}}{30}}
\@writefile{lof}{\contentsline {figure}{\numberline {4.20}{\ignorespaces Clase Dependency}}{30}}
\@writefile{lof}{\contentsline {figure}{\numberline {4.21}{\ignorespaces Clase Extra}}{30}}
\@writefile{lof}{\contentsline {figure}{\numberline {4.22}{\ignorespaces Clase UserAdmin}}{31}}
\@writefile{lof}{\contentsline {figure}{\numberline {4.23}{\ignorespaces Clase Login}}{31}}
\@writefile{lof}{\contentsline {figure}{\numberline {4.24}{\ignorespaces Clase VerifyLogin}}{31}}
\@writefile{toc}{\contentsline {subsection}{\numberline {4.1.3}Servicio Web}{31}}
\@writefile{lof}{\contentsline {figure}{\numberline {4.25}{\ignorespaces Diagrama de clases del servicio web}}{31}}
\AC@undonewlabel{acro:HTTP}
\newlabel{acro:HTTP}{{4.1.3}{31}}
\acronymused{HTTP}
\@writefile{lof}{\contentsline {figure}{\numberline {4.26}{\ignorespaces Clase Slim}}{32}}
\@writefile{lof}{\contentsline {figure}{\numberline {4.27}{\ignorespaces Clase Dbhandler}}{32}}
\@writefile{toc}{\contentsline {section}{\numberline {4.2}An\IeC {\'a}lisis de casos de uso}{32}}
\acronymused{UML}
\@writefile{toc}{\contentsline {subsection}{\numberline {4.2.1}Gu\IeC {\'\i }a virtual}{33}}
\@writefile{lof}{\contentsline {figure}{\numberline {4.28}{\ignorespaces Casos de uso aplicaci\IeC {\'o}n 3D}}{33}}
\@writefile{lot}{\contentsline {table}{\numberline {4.1}{\ignorespaces Caso de uso obtener informaci\IeC {\'o}n}}{34}}
\newlabel{tabla:oi}{{4.1}{34}}
\@writefile{lot}{\contentsline {table}{\numberline {4.2}{\ignorespaces Caso de uso abrir puerta}}{34}}
\newlabel{tabla:oi}{{4.2}{34}}
\@writefile{lot}{\contentsline {table}{\numberline {4.3}{\ignorespaces Caso de uso abrir puerta}}{34}}
\newlabel{tabla:oi}{{4.3}{34}}
\@writefile{toc}{\contentsline {subsection}{\numberline {4.2.2}Panel de control}{35}}
\@writefile{lof}{\contentsline {figure}{\numberline {4.29}{\ignorespaces Casos de uso del panel de control}}{35}}
\@writefile{lot}{\contentsline {table}{\numberline {4.4}{\ignorespaces Caso de uso iniciar sesi\IeC {\'o}n}}{36}}
\newlabel{cu:iniciar_sesion}{{4.4}{36}}
\@writefile{lot}{\contentsline {table}{\numberline {4.5}{\ignorespaces Caso de uso cerrar sesi\IeC {\'o}n}}{36}}
\newlabel{cu:cerrar_sesion}{{4.5}{36}}
\@writefile{lot}{\contentsline {table}{\numberline {4.6}{\ignorespaces Caso de uso crear zona de informaci\IeC {\'o}n}}{37}}
\newlabel{cu:crear_z}{{4.6}{37}}
\@writefile{lot}{\contentsline {table}{\numberline {4.7}{\ignorespaces Caso de uso modificar clase}}{38}}
\newlabel{cu:modificar_clase}{{4.7}{38}}
\@writefile{lot}{\contentsline {table}{\numberline {4.8}{\ignorespaces Caso de uso eliminar clase}}{38}}
\newlabel{cu:eliminar_clase}{{4.8}{38}}
\@writefile{lot}{\contentsline {table}{\numberline {4.9}{\ignorespaces Caso de uso ver clase}}{39}}
\newlabel{cu:ver_clase}{{4.9}{39}}
\@writefile{lot}{\contentsline {table}{\numberline {4.10}{\ignorespaces Caso de uso buscar clase}}{39}}
\newlabel{cu:buscar_clase}{{4.10}{39}}
\@writefile{lot}{\contentsline {table}{\numberline {4.11}{\ignorespaces Caso de uso modificar despacho}}{40}}
\newlabel{cu:modificar_despacho}{{4.11}{40}}
\@writefile{lot}{\contentsline {table}{\numberline {4.12}{\ignorespaces Caso de uso eliminar despacho}}{40}}
\newlabel{cu:eliminar_despacho}{{4.12}{40}}
\@writefile{lot}{\contentsline {table}{\numberline {4.13}{\ignorespaces Caso de uso ver despacho}}{41}}
\newlabel{cu:ver_despacho}{{4.13}{41}}
\@writefile{lot}{\contentsline {table}{\numberline {4.14}{\ignorespaces Caso de uso buscar despacho}}{41}}
\newlabel{cu:buscar_despacho}{{4.14}{41}}
\@writefile{lot}{\contentsline {table}{\numberline {4.15}{\ignorespaces Caso de uso modificar dependencia}}{42}}
\newlabel{cu:modificar_dependencia}{{4.15}{42}}
\@writefile{lot}{\contentsline {table}{\numberline {4.16}{\ignorespaces Caso de uso eliminar dependencia}}{42}}
\newlabel{cu:eliminar_dependencia}{{4.16}{42}}
\@writefile{lot}{\contentsline {table}{\numberline {4.17}{\ignorespaces Caso de uso ver dependencia}}{43}}
\newlabel{cu:ver_dependencia}{{4.17}{43}}
\@writefile{lot}{\contentsline {table}{\numberline {4.18}{\ignorespaces Caso de uso buscar dependencia}}{43}}
\newlabel{cu:buscar_dependencia}{{4.18}{43}}
\@writefile{lot}{\contentsline {table}{\numberline {4.19}{\ignorespaces Caso de uso modificar extra}}{44}}
\newlabel{cu:modificar_extra}{{4.19}{44}}
\@writefile{lot}{\contentsline {table}{\numberline {4.20}{\ignorespaces Caso de uso eliminar extra}}{44}}
\newlabel{cu:eliminar_extra}{{4.20}{44}}
\@writefile{lot}{\contentsline {table}{\numberline {4.21}{\ignorespaces Caso de uso ver extra}}{45}}
\newlabel{cu:ver_extra}{{4.21}{45}}
\@writefile{lot}{\contentsline {table}{\numberline {4.22}{\ignorespaces Caso de uso buscar extra}}{45}}
\newlabel{cu:buscar_extra}{{4.22}{45}}
\@writefile{lot}{\contentsline {table}{\numberline {4.23}{\ignorespaces Caso de uso establecer rotaci\IeC {\'o}n}}{45}}
\newlabel{cu:establecer_rot}{{4.23}{45}}
\@writefile{lot}{\contentsline {table}{\numberline {4.24}{\ignorespaces Caso de uso establecer escala}}{46}}
\newlabel{cu:establecer_escala}{{4.24}{46}}
\@writefile{lot}{\contentsline {table}{\numberline {4.25}{\ignorespaces Caso de uso crear usuario}}{46}}
\newlabel{cu:crear_usuario}{{4.25}{46}}
\@writefile{lot}{\contentsline {table}{\numberline {4.26}{\ignorespaces Caso de uso modificar usuario}}{47}}
\newlabel{cu:modificar_usuario}{{4.26}{47}}
\@writefile{lot}{\contentsline {table}{\numberline {4.27}{\ignorespaces Caso de uso eliminar usuario}}{47}}
\newlabel{cu:eliminar_usuario}{{4.27}{47}}
\@writefile{lot}{\contentsline {table}{\numberline {4.28}{\ignorespaces Caso de uso ver usuario}}{48}}
\newlabel{cu:ver_usuario}{{4.28}{48}}
\@writefile{lot}{\contentsline {table}{\numberline {4.29}{\ignorespaces Caso de uso buscar extra}}{48}}
\newlabel{cu:buscar_usuario}{{4.29}{48}}
\@writefile{toc}{\contentsline {subsection}{\numberline {4.2.3}Servicio Web}{49}}
\@writefile{lof}{\contentsline {figure}{\numberline {4.30}{\ignorespaces Casos de uso del servicio web}}{49}}
\@writefile{lot}{\contentsline {table}{\numberline {4.30}{\ignorespaces Caso de uso obtener recurso}}{49}}
\newlabel{cu:iniciar_sesion}{{4.30}{49}}
\@writefile{lot}{\contentsline {table}{\numberline {4.31}{\ignorespaces Caso de uso crear recurso}}{49}}
\newlabel{cu:iniciar_sesion}{{4.31}{49}}
\@writefile{toc}{\contentsline {section}{\numberline {4.3}Diagramas de secuencia}{50}}
\@writefile{toc}{\contentsline {subsection}{\numberline {4.3.1}Gu\IeC {\'\i }a virtual}{50}}
\@writefile{lof}{\contentsline {figure}{\numberline {4.31}{\ignorespaces Diagrama de secuencia de obtener informaci\IeC {\'o}n}}{50}}
\@writefile{lot}{\contentsline {table}{\numberline {4.32}{\ignorespaces Contrato de la operaci\IeC {\'o}n obtener informaci\IeC {\'o}n}}{50}}
\newlabel{cu:buscar_usuario}{{4.32}{50}}
\@writefile{lof}{\contentsline {figure}{\numberline {4.32}{\ignorespaces Diagrama de secuencia de abrir puerta}}{51}}
\@writefile{lot}{\contentsline {table}{\numberline {4.33}{\ignorespaces Contrato de la operaci\IeC {\'o}n abrir puerta}}{51}}
\newlabel{cu:buscar_usuario}{{4.33}{51}}
\@writefile{lof}{\contentsline {figure}{\numberline {4.33}{\ignorespaces Diagrama de secuencia de cerrar puerta}}{51}}
\@writefile{lot}{\contentsline {table}{\numberline {4.34}{\ignorespaces Contrato de la operaci\IeC {\'o}n cerrar puerta}}{52}}
\newlabel{cu:buscar_usuario}{{4.34}{52}}
\@writefile{toc}{\contentsline {subsection}{\numberline {4.3.2}Panel de control}{52}}
\@writefile{lof}{\contentsline {figure}{\numberline {4.34}{\ignorespaces Diagrama de secuencia de iniciar sesi\IeC {\'o}n}}{52}}
\@writefile{lot}{\contentsline {table}{\numberline {4.35}{\ignorespaces Contrato de la operaci\IeC {\'o}n iniciar sesi\IeC {\'o}n}}{52}}
\@writefile{lof}{\contentsline {figure}{\numberline {4.35}{\ignorespaces Diagrama de secuencia de cerrar sesi\IeC {\'o}n}}{53}}
\@writefile{lot}{\contentsline {table}{\numberline {4.36}{\ignorespaces Contrato de operaci\IeC {\'o}n la cerrar sesi\IeC {\'o}n}}{53}}
\@writefile{lof}{\contentsline {figure}{\numberline {4.36}{\ignorespaces Diagrama de secuencia de crear zona de informaci\IeC {\'o}n}}{53}}
\@writefile{lot}{\contentsline {table}{\numberline {4.37}{\ignorespaces Contrato de la operaci\IeC {\'o}n crear zona de informaci\IeC {\'o}n}}{54}}
\@writefile{lof}{\contentsline {figure}{\numberline {4.37}{\ignorespaces Diagrama de secuencia de modificar clase}}{54}}
\@writefile{lot}{\contentsline {table}{\numberline {4.38}{\ignorespaces Contrato de la operaci\IeC {\'o}n modificar clase}}{54}}
\@writefile{lof}{\contentsline {figure}{\numberline {4.38}{\ignorespaces Diagrama de secuencia de eliminar clase}}{55}}
\@writefile{lot}{\contentsline {table}{\numberline {4.39}{\ignorespaces Contrato de la operaci\IeC {\'o}n eliminar clase}}{55}}
\@writefile{lof}{\contentsline {figure}{\numberline {4.39}{\ignorespaces Diagrama de secuencia de ver clase}}{55}}
\@writefile{lot}{\contentsline {table}{\numberline {4.40}{\ignorespaces Contrato de la operaci\IeC {\'o}n ver clase}}{56}}
\@writefile{lof}{\contentsline {figure}{\numberline {4.40}{\ignorespaces Diagrama de secuencia de buscar clase}}{56}}
\@writefile{lot}{\contentsline {table}{\numberline {4.41}{\ignorespaces Contrato de la operaci\IeC {\'o}n buscar clase}}{56}}
\@writefile{lof}{\contentsline {figure}{\numberline {4.41}{\ignorespaces Diagrama de secuencia de modificar despacho}}{57}}
\@writefile{lot}{\contentsline {table}{\numberline {4.42}{\ignorespaces Contrato de la operaci\IeC {\'o}n modificar despacho}}{57}}
\@writefile{lof}{\contentsline {figure}{\numberline {4.42}{\ignorespaces Diagrama de secuencia de eliminar despacho}}{57}}
\@writefile{lot}{\contentsline {table}{\numberline {4.43}{\ignorespaces Contrato de la operaci\IeC {\'o}n eliminar despacho}}{58}}
\@writefile{lof}{\contentsline {figure}{\numberline {4.43}{\ignorespaces Diagrama de secuencia de ver despacho}}{58}}
\@writefile{lot}{\contentsline {table}{\numberline {4.44}{\ignorespaces Contrato de la operaci\IeC {\'o}n ver despacho}}{58}}
\@writefile{lof}{\contentsline {figure}{\numberline {4.44}{\ignorespaces Diagrama de secuencia de buscar despacho}}{59}}
\@writefile{lot}{\contentsline {table}{\numberline {4.45}{\ignorespaces Contrato de la operaci\IeC {\'o}n buscar despacho}}{59}}
\@writefile{lof}{\contentsline {figure}{\numberline {4.45}{\ignorespaces Diagrama de secuencia de modificar dependencia}}{59}}
\@writefile{lot}{\contentsline {table}{\numberline {4.46}{\ignorespaces Contrato de la operaci\IeC {\'o}n modificar dependencia}}{60}}
\@writefile{lof}{\contentsline {figure}{\numberline {4.46}{\ignorespaces Diagrama de secuencia de eliminar dependencia}}{60}}
\@writefile{lot}{\contentsline {table}{\numberline {4.47}{\ignorespaces Contrato de la operaci\IeC {\'o}n eliminar dependencia}}{60}}
\@writefile{lof}{\contentsline {figure}{\numberline {4.47}{\ignorespaces Diagrama de secuencia de ver dependencia}}{61}}
\@writefile{lot}{\contentsline {table}{\numberline {4.48}{\ignorespaces Contrato de la operaci\IeC {\'o}n ver dependencia}}{61}}
\@writefile{lof}{\contentsline {figure}{\numberline {4.48}{\ignorespaces Diagrama de secuencia de buscar dependencia}}{61}}
\@writefile{lot}{\contentsline {table}{\numberline {4.49}{\ignorespaces Contrato de la operaci\IeC {\'o}n buscar dependencia}}{62}}
\@writefile{lof}{\contentsline {figure}{\numberline {4.49}{\ignorespaces Diagrama de secuencia de modificar extra}}{62}}
\@writefile{lot}{\contentsline {table}{\numberline {4.50}{\ignorespaces Contrato de la operaci\IeC {\'o}n modificar extra}}{62}}
\@writefile{lof}{\contentsline {figure}{\numberline {4.50}{\ignorespaces Diagrama de secuencia de eliminar extra}}{63}}
\@writefile{lot}{\contentsline {table}{\numberline {4.51}{\ignorespaces Contrato de la operaci\IeC {\'o}n eliminar extra}}{63}}
\@writefile{lof}{\contentsline {figure}{\numberline {4.51}{\ignorespaces Diagrama de secuencia de ver extra}}{63}}
\@writefile{lot}{\contentsline {table}{\numberline {4.52}{\ignorespaces Contrato de la operaci\IeC {\'o}n ver extra}}{64}}
\@writefile{lof}{\contentsline {figure}{\numberline {4.52}{\ignorespaces Diagrama de secuencia de buscar extra}}{64}}
\@writefile{lot}{\contentsline {table}{\numberline {4.53}{\ignorespaces Contrato de la operaci\IeC {\'o}n buscar extra}}{64}}
\@writefile{lof}{\contentsline {figure}{\numberline {4.53}{\ignorespaces Diagrama de secuencia de establecer rotaci\IeC {\'o}n}}{65}}
\@writefile{lot}{\contentsline {table}{\numberline {4.54}{\ignorespaces Contrato de la operaci\IeC {\'o}n establecer rotaci\IeC {\'o}n}}{65}}
\@writefile{lof}{\contentsline {figure}{\numberline {4.54}{\ignorespaces Diagrama de secuencia de establecer escala}}{65}}
\@writefile{lot}{\contentsline {table}{\numberline {4.55}{\ignorespaces Contrato de la operaci\IeC {\'o}n establecer escala}}{65}}
\@writefile{lof}{\contentsline {figure}{\numberline {4.55}{\ignorespaces Diagrama de secuencia de crear usuario}}{66}}
\@writefile{lot}{\contentsline {table}{\numberline {4.56}{\ignorespaces Contrato de la operaci\IeC {\'o}n crear usuario}}{66}}
\@writefile{lof}{\contentsline {figure}{\numberline {4.56}{\ignorespaces Diagrama de secuencia de modificar usuario}}{66}}
\@writefile{lot}{\contentsline {table}{\numberline {4.57}{\ignorespaces Contrato de la operaci\IeC {\'o}n modificar usuario}}{67}}
\@writefile{lof}{\contentsline {figure}{\numberline {4.57}{\ignorespaces Diagrama de secuencia de eliminar usuario}}{67}}
\@writefile{lot}{\contentsline {table}{\numberline {4.58}{\ignorespaces Contrato de la operaci\IeC {\'o}n eliminar usuario}}{67}}
\@writefile{lof}{\contentsline {figure}{\numberline {4.58}{\ignorespaces Diagrama de secuencia de ver usuario}}{68}}
\@writefile{lot}{\contentsline {table}{\numberline {4.59}{\ignorespaces Contrato de la operaci\IeC {\'o}n ver usuario}}{68}}
\@writefile{lof}{\contentsline {figure}{\numberline {4.59}{\ignorespaces Diagrama de secuencia de buscar usuario}}{68}}
\@writefile{lot}{\contentsline {table}{\numberline {4.60}{\ignorespaces Contrato de la operaci\IeC {\'o}n buscar usuario}}{69}}
\@writefile{toc}{\contentsline {subsection}{\numberline {4.3.3}Servicio Web}{69}}
\@writefile{lof}{\contentsline {figure}{\numberline {4.60}{\ignorespaces Diagrama de secuencia de solicitar recurso}}{69}}
\@writefile{lot}{\contentsline {table}{\numberline {4.61}{\ignorespaces Contrato de la operaci\IeC {\'o}n solicitar recurso}}{69}}
\@writefile{lof}{\contentsline {figure}{\numberline {4.61}{\ignorespaces Diagrama de secuencia de crear recurso}}{70}}
\@writefile{lot}{\contentsline {table}{\numberline {4.62}{\ignorespaces Contrato de la operaci\IeC {\'o}n crear recurso}}{70}}
\@writefile{toc}{\contentsline {chapter}{\numberline {5}Arquitectura del Sistema}{71}}
\@writefile{lof}{\addvspace {10\p@ }}
\@writefile{lot}{\addvspace {10\p@ }}
\@writefile{toc}{\contentsline {section}{\numberline {5.1}Arquitectura f\IeC {\'\i }sica}{71}}
\@writefile{lof}{\contentsline {figure}{\numberline {5.1}{\ignorespaces Arquitectura f\IeC {\'\i }sica}}{72}}
\@writefile{toc}{\contentsline {section}{\numberline {5.2}Arquitectura l\IeC {\'o}gica}{72}}
\acronymused{PHP}
\acronymused{PHP}
\@writefile{lof}{\contentsline {figure}{\numberline {5.2}{\ignorespaces Arquitectura l\IeC {\'o}gica}}{73}}
\@writefile{toc}{\contentsline {section}{\numberline {5.3}Dise\IeC {\~n}o f\IeC {\'\i }sico de datos}{73}}
\@writefile{lof}{\contentsline {figure}{\numberline {5.3}{\ignorespaces Modelo de datos}}{74}}
\@writefile{lot}{\contentsline {table}{\numberline {5.1}{\ignorespaces Descripci\IeC {\'o}n tabla clase}}{74}}
\newlabel{t:clase}{{5.1}{74}}
\@writefile{lot}{\contentsline {table}{\numberline {5.2}{\ignorespaces Descripci\IeC {\'o}n tabla despacho}}{75}}
\newlabel{t:despacho}{{5.2}{75}}
\@writefile{lot}{\contentsline {table}{\numberline {5.3}{\ignorespaces Descripci\IeC {\'o}n tabla dependencia}}{75}}
\newlabel{t:clase}{{5.3}{75}}
\@writefile{lot}{\contentsline {table}{\numberline {5.4}{\ignorespaces Descripci\IeC {\'o}n tabla collider}}{76}}
\newlabel{t:clase}{{5.4}{76}}
\@writefile{lot}{\contentsline {table}{\numberline {5.5}{\ignorespaces Descripci\IeC {\'o}n tabla usuario}}{76}}
\newlabel{cu:ver_dependencia}{{5.5}{76}}
\@writefile{toc}{\contentsline {section}{\numberline {5.4}Interfaz de usuario}{77}}
\@writefile{toc}{\contentsline {subsection}{\numberline {5.4.1}Interfaz de la gu\IeC {\'\i }a virtual}{77}}
\@writefile{lof}{\contentsline {figure}{\numberline {5.4}{\ignorespaces Pantalla de inicio}}{77}}
\@writefile{lof}{\contentsline {figure}{\numberline {5.5}{\ignorespaces Instrucciones de la gu\IeC {\'\i }a virtual}}{78}}
\@writefile{lof}{\contentsline {figure}{\numberline {5.6}{\ignorespaces Panel de informaci\IeC {\'o}n}}{78}}
\@writefile{lof}{\contentsline {figure}{\numberline {5.7}{\ignorespaces Vista del modelo}}{79}}
\@writefile{toc}{\contentsline {subsection}{\numberline {5.4.2}Interfaz del panel de control}{79}}
\@writefile{lof}{\contentsline {figure}{\numberline {5.8}{\ignorespaces Interfaz de inicio de sesi\IeC {\'o}n}}{79}}
\@writefile{lof}{\contentsline {figure}{\numberline {5.9}{\ignorespaces Interfaz de la pagina principal del \ac {CRUD}}}{80}}
\acronymused{CRUD}
\@writefile{lof}{\contentsline {figure}{\numberline {5.10}{\ignorespaces Interfaz para modificar informaci\IeC {\'o}n}}{80}}
\@writefile{lof}{\contentsline {figure}{\numberline {5.11}{\ignorespaces Interfaz para ver informaci\IeC {\'o}n}}{81}}
\@writefile{lof}{\contentsline {figure}{\numberline {5.12}{\ignorespaces Interfaz del editor}}{81}}
\@writefile{toc}{\contentsline {chapter}{\numberline {6}Pruebas}{83}}
\@writefile{lof}{\addvspace {10\p@ }}
\@writefile{lot}{\addvspace {10\p@ }}
\@writefile{toc}{\contentsline {section}{\numberline {6.1}Estrategia}{83}}
\@writefile{toc}{\contentsline {section}{\numberline {6.2}Entorno de pruebas}{83}}
\@writefile{toc}{\contentsline {section}{\numberline {6.3}Pruebas Unitarias}{83}}
\@writefile{lot}{\contentsline {table}{\numberline {6.1}{\ignorespaces Ejemplo de pruebas unitarias}}{84}}
\newlabel{cu:ver_dependencia}{{6.1}{84}}
\@writefile{toc}{\contentsline {section}{\numberline {6.4}Pruebas de Integraci\IeC {\'o}n}{84}}
\@writefile{toc}{\contentsline {section}{\numberline {6.5}Pruebas de Aceptaci\IeC {\'o}n}{84}}
\@writefile{toc}{\contentsline {chapter}{\numberline {7}Conclusiones}{85}}
\@writefile{lof}{\addvspace {10\p@ }}
\@writefile{lot}{\addvspace {10\p@ }}
\@writefile{toc}{\contentsline {section}{\numberline {7.1}Conclusiones sobre el trabajo realizado}{85}}
\acronymused{ESI}
\acronymused{CRUD}
\@writefile{toc}{\contentsline {section}{\numberline {7.2}Mejoras para el futuro}{86}}
\bibcite{uni}{1}
\bibcite{rap}{2}
\bibcite{pro}{3}
\bibcite{pro}{4}
\bibcite{php}{5}
\bibcite{php}{6}
\bibcite{php}{7}
\bibcite{php}{8}
\bibcite{php}{9}
\bibcite{php}{10}
\bibcite{php}{11}
\bibcite{stac}{12}
\bibcite{slim}{13}
\bibcite{stac}{14}
\bibcite{stac}{15}
\bibcite{ans}{16}
\@writefile{toc}{\contentsline {chapter}{Bibliograf\'{\i }a}{87}}
\bibcite{ans}{17}
\bibcite{spa}{18}
\@writefile{toc}{\contentsline {chapter}{\numberline {A}Acr\IeC {\'o}nimos}{89}}
\@writefile{lof}{\addvspace {10\p@ }}
\@writefile{lot}{\addvspace {10\p@ }}
\@writefile{toc}{\contentsline {chapter}{\numberline {B}Manual de implantaci\IeC {\'o}n}{91}}
\@writefile{lof}{\addvspace {10\p@ }}
\@writefile{lot}{\addvspace {10\p@ }}
\@writefile{toc}{\contentsline {section}{\numberline {B.1}Requisitos}{91}}
\@writefile{lof}{\contentsline {figure}{\numberline {B.1}{\ignorespaces Carpeta esi3d}}{91}}
\@writefile{lof}{\contentsline {figure}{\numberline {B.2}{\ignorespaces Carpeta esi3d}}{92}}
\@writefile{lof}{\contentsline {figure}{\numberline {B.3}{\ignorespaces Carpeta ws}}{93}}
\@writefile{toc}{\contentsline {chapter}{\numberline {C}Manual de usuario}{95}}
\@writefile{lof}{\addvspace {10\p@ }}
\@writefile{lot}{\addvspace {10\p@ }}
\@writefile{toc}{\contentsline {section}{\numberline {C.1}Manual de la Gu\IeC {\'\i }a Virtual}{95}}
\@writefile{lof}{\contentsline {figure}{\numberline {C.1}{\ignorespaces Pantalla de inicio}}{95}}
\@writefile{lof}{\contentsline {figure}{\numberline {C.2}{\ignorespaces Pantalla de instrucciones}}{96}}
\AC@undonewlabel{acro:FPS}
\newlabel{acro:FPS}{{C.1}{96}}
\acronymused{FPS}
\@writefile{lof}{\contentsline {figure}{\numberline {C.3}{\ignorespaces Panel de informaci\IeC {\'o}n}}{97}}
\@writefile{toc}{\contentsline {section}{\numberline {C.2}Manual del Panel de Control}{97}}
\@writefile{lof}{\contentsline {figure}{\numberline {C.4}{\ignorespaces Inicio del panel de Control}}{98}}
\@writefile{lof}{\contentsline {figure}{\numberline {C.5}{\ignorespaces Ver informaci\IeC {\'o}n}}{98}}
\@writefile{lof}{\contentsline {figure}{\numberline {C.6}{\ignorespaces Modificar informaci\IeC {\'o}n}}{99}}
\@writefile{lof}{\contentsline {figure}{\numberline {C.7}{\ignorespaces Interfaz de creaci\IeC {\'o}n de zona de informaci\IeC {\'o}n 1}}{100}}
\@writefile{lof}{\contentsline {figure}{\numberline {C.8}{\ignorespaces Interfaz de creaci\IeC {\'o}n de zona de informaci\IeC {\'o}n 2}}{101}}
\@writefile{lof}{\contentsline {figure}{\numberline {C.9}{\ignorespaces Comunicar \IeC {\'e}xito}}{102}}
\@writefile{lof}{\contentsline {figure}{\numberline {C.10}{\ignorespaces Comunicar error}}{102}}
